1 -99 2.66124e+45
11 -2.2549e+14 6.06144e+57
21 -1.61525e+22 4.34198e+65
31 -9.26646e+27 2.49093e+71
41 -2.11567e+32 5.68717e+75
51 -4.2599e+35 1.14511e+79
61 -1.22079e+38 3.28162e+81
71 -6.8593e+39 1.84386e+83
81 -9.5067e+40 2.55551e+84
91 -3.86279e+41 1.03836e+85
101 -5.26489e+41 1.41526e+85
111 -2.68158e+41 7.2084e+84
121 -5.57634e+40 1.49899e+84
131 -5.09747e+39 1.37026e+83
141 -2.18071e+38 5.86199e+81
151 -4.60694e+36 1.2384e+80
161 -nan(ind) nan
171 -nan(ind) nan
181 -nan(ind) nan
191 -nan(ind) nan
201 -nan(ind) nan
211 -nan(ind) nan
221 -nan(ind) nan
231 -nan(ind) nan
241 -nan(ind) nan
251 -nan(ind) nan
261 -nan(ind) nan
271 -nan(ind) nan
281 -nan(ind) nan
291 -nan(ind) nan
301 -nan(ind) nan
311 -nan(ind) nan
321 -nan(ind) nan
331 -nan(ind) nan
341 -nan(ind) nan
351 -nan(ind) nan
361 -nan(ind) nan
371 -nan(ind) nan
381 -nan(ind) nan
391 -nan(ind) nan
401 -nan(ind) nan
411 -nan(ind) nan
421 -nan(ind) nan
431 -nan(ind) nan
441 -nan(ind) nan
451 -nan(ind) nan
461 -nan(ind) nan
471 -nan(ind) nan
481 -nan(ind) nan
491 -nan(ind) nan
501 -nan(ind) nan
511 -nan(ind) nan
521 -nan(ind) nan
531 -nan(ind) nan
541 -nan(ind) nan
551 -nan(ind) nan
561 -nan(ind) nan
571 -nan(ind) nan
581 -nan(ind) nan
591 -nan(ind) nan
601 -nan(ind) nan
611 -nan(ind) nan
621 -nan(ind) nan
631 -nan(ind) nan
641 -nan(ind) nan
651 -nan(ind) nan
661 -nan(ind) nan
671 -nan(ind) nan
681 -nan(ind) nan
691 -nan(ind) nan
701 -nan(ind) nan
711 -nan(ind) nan
721 -nan(ind) nan
731 -nan(ind) nan
741 -nan(ind) nan
751 -nan(ind) nan
761 -nan(ind) nan
771 -nan(ind) nan
781 -nan(ind) nan
791 -nan(ind) nan
801 -nan(ind) nan
811 -nan(ind) nan
821 -nan(ind) nan
831 -nan(ind) nan
841 -nan(ind) nan
851 -nan(ind) nan
861 -nan(ind) nan
871 -nan(ind) nan
881 -nan(ind) nan
891 -nan(ind) nan
901 -nan(ind) nan
911 -nan(ind) nan
921 -nan(ind) nan
931 -nan(ind) nan
941 -nan(ind) nan
951 -nan(ind) nan
961 -nan(ind) nan
971 -nan(ind) nan
981 -nan(ind) nan
991 -nan(ind) nan
